<?xml version="1.0" encoding="UTF-8" standalone="no"?>
<!-- Created with Inkscape (http://www.inkscape.org/) -->
<svg
   xmlns:dc="http://purl.org/dc/elements/1.1/"
   xmlns:cc="http://creativecommons.org/ns#"
   xmlns:rdf="http://www.w3.org/1999/02/22-rdf-syntax-ns#"
   xmlns:svg="http://www.w3.org/2000/svg"
   xmlns="http://www.w3.org/2000/svg"
   xmlns:sodipodi="http://sodipodi.sourceforge.net/DTD/sodipodi-0.dtd"
   xmlns:inkscape="http://www.inkscape.org/namespaces/inkscape"
   width="48px"
   height="48px"
   id="svg2383"
   sodipodi:version="0.32"
   inkscape:version="0.46"
   sodipodi:docname="check_border.svg"
   inkscape:output_extension="org.inkscape.output.svg.inkscape"
   inkscape:export-filename="C:\tests\todolists\app_todolists.png"
   inkscape:export-xdpi="90"
   inkscape:export-ydpi="90">
  <defs
     id="defs2385">
    <inkscape:perspective
       sodipodi:type="inkscape:persp3d"
       inkscape:vp_x="0 : 24 : 1"
       inkscape:vp_y="0 : 1000 : 0"
       inkscape:vp_z="48 : 24 : 1"
       inkscape:persp3d-origin="24 : 16 : 1"
       id="perspective2391" />
  </defs>
  <sodipodi:namedview
     id="base"
     pagecolor="#ffffff"
     bordercolor="#666666"
     borderopacity="1.0"
     inkscape:pageopacity="0.0"
     inkscape:pageshadow="2"
     inkscape:zoom="9.8994949"
     inkscape:cx="6.1299786"
     inkscape:cy="24.048485"
     inkscape:current-layer="layer1"
     showgrid="true"
     inkscape:grid-bbox="true"
     inkscape:document-units="px"
     inkscape:window-width="1680"
     inkscape:window-height="952"
     inkscape:window-x="-4"
     inkscape:window-y="-4">
    <inkscape:grid
       type="xygrid"
       id="grid2393"
       visible="true"
       enabled="true"
       dotted="false"
       color="#0000ff"
       opacity="0.10980392"
       empcolor="#0000ff"
       empopacity="0.67058824"
       spacingx="1px"
       empspacing="5" />
  </sodipodi:namedview>
  <metadata
     id="metadata2388">
    <rdf:RDF>
      <cc:Work
         rdf:about="">
        <dc:format>image/svg+xml</dc:format>
        <dc:type
           rdf:resource="http://purl.org/dc/dcmitype/StillImage" />
      </cc:Work>
    </rdf:RDF>
  </metadata>
  <g
     id="layer1"
     inkscape:label="Layer 1"
     inkscape:groupmode="layer">
    <rect
       style="fill:#ffffff;fill-opacity:1;fill-rule:evenodd;stroke:#008700;stroke-width:3;stroke-linejoin:round;stroke-miterlimit:4;stroke-dasharray:none;stroke-opacity:1"
       id="rect2397"
       width="43.335545"
       height="43.537575"
       x="2.2223356"
       y="2.341105"
       ry="5.2527933" />
    <path
       style="fill:#008700;fill-opacity:1;fill-rule:nonzero;stroke:#008700;stroke-width:1;stroke-linejoin:round;stroke-miterlimit:4;stroke-dasharray:none;stroke-opacity:1"
       id="path3448"
       d="M 9.3604384,26.279279 C 10.090773,26.378342 10.723772,26.775055 11.355002,27.124191 C 12.566844,27.800981 13.798239,28.476852 14.891055,29.339017 C 15.544124,29.854248 16.145781,30.435905 16.756382,30.998452 C 17.998717,32.131436 19.145557,33.358554 20.237236,34.632581 C 20.86148,35.356787 21.418924,36.131102 21.910226,36.948242 C 22.152281,37.394803 22.344631,37.863716 22.532204,38.334369 C 22.680438,38.728554 22.86358,39.108507 22.996929,39.507859 C 23.050492,39.666685 23.076193,39.831546 23.103741,39.995956 C 23.249527,40.865997 24.259281,40.74718 21.057248,39.045622 C 21.210002,38.233868 21.486177,37.450771 21.742269,36.666831 C 21.817506,36.441878 21.884038,36.21389 21.967982,35.991971 C 22.124437,35.578356 22.640631,34.389445 22.790541,34.041157 C 23.394757,32.637378 24.000376,31.235401 24.586424,29.824048 C 25.830633,26.8458 27.25318,23.945773 28.728611,21.074278 C 29.938952,18.709672 31.251993,16.400533 32.583442,14.101407 C 33.453242,12.512262 34.410614,10.976019 35.390212,9.4520796 C 35.753845,8.9061599 36.137749,8.3745915 36.535381,7.8525999 C 37.306005,6.8409613 39.292752,8.0218729 38.479126,9 L 38.479126,9 C 38.061735,9.5017811 37.662238,10.0174 37.282266,10.547659 C 36.254299,12.037204 35.260678,13.547261 34.36864,15.121908 C 33.008422,17.400188 31.697497,19.705514 30.456433,22.049848 C 28.965277,24.905976 27.502938,27.780623 26.290507,30.766202 C 25.370683,33.062565 24.395809,35.347504 23.67879,37.715785 C 23.449158,38.502805 23.167913,39.294742 23.132905,40.120023 C 20.402241,38.852878 21.30744,39.851469 20.90302,38.537498 C 20.760845,38.146465 20.589377,37.76612 20.442224,37.376821 C 20.259875,36.919154 20.065529,36.465638 19.827771,36.032887 C 19.361264,35.238222 18.817722,34.491727 18.221818,33.78665 C 17.149644,32.519399 16.013617,31.305569 14.77424,30.195244 C 13.96824,29.464468 13.168797,28.743241 12.271755,28.121609 C 12.08451,27.991853 11.497883,27.643158 11.703998,27.740988 C 12.180889,27.967338 12.62663,28.252999 13.087946,28.509004 C 12.496572,28.179961 11.904871,27.788118 11.229391,27.65816 C 9.9348054,27.409092 8.0538245,26.102048 9.3604384,26.279279 z" />
  </g>
</svg>
